D_Testcase(20250725）/20250725_ICCAD_Problem4_Testcase/pulpino_public_testcase2.vcd
$date
    Jul 17, 2025  10:30:36
$end
$version
    TOOL:	xmsim(64)	19.09-s010
$end
$timescale
    1 ps
$end

$scope module test $end

$scope module apb_if $end
$var parameter 32 !    ADDR_WIDTH $end
$var parameter 32 "    DATA_WIDTH $end
$var wire      1 #    clk  $end
$var wire      1 $    rst_n  $end
$var reg      32 %    paddr [31:0] $end
$var reg      32 &    pwdata [31:0] $end
$var reg       1 '    pwrite $end
$var reg       1 (    psel $end
$var reg       1 )    penable $end
$var reg       1 *    pready $end
$var reg      32 +    prdata [31:0] $end
$upscope $end

$upscope $end

$enddefinitions $end
$dumpvars
b100000 "
b100000 !
0#
0$
b0 %
b0 &
0'
0(
0)
0*
b0 +
$end
#5000
1#
#10000
0#
#15000
1#
#20000
0#
#25000
1#
#30000
0#
#35000
1#
#40000
0#
#45000
1#
#50000
0#
#55000
1#
#60000
0#
#65000
1#
#70000
0#
#75000
1#
#80000
0#
#85000
1#
#90000
0#
#95000
1#
#100000
0#
#105000
1#
#110000
0#
#115000
1#
#120000
0#
#125000
1#
#130000
0#
#135000
1#
#140000
0#
#145000
1#
#150000
0#
#155000
1#
#160000
0#
#165000
1#
#170000
0#
#175000
1#
#180000
0#
#185000
1#
#190000
0#
#195000
1#
#200000
0#
1$
#205000
1#
#210000
0#
#215000
1#
1(
1'
b11010000100000000000000001100 %
b10000011 &
1*
0(
0'
b0 %
b0 &
1(
1'
b11010000100000000000000001100 %
b10000011 &
#220000
0#
#225000
1#
0(
0'
b0 %
b0 &
1(
1)
1'
b11010000100000000000000001100 %
b10000011 &
#230000
0#
#235000
1#
0(
0)
0'
b0 %
b0 &
0*
#240000
0#
#245000
1#
1(
1'
b11010000100000000000000000000 %
b110110 &
1*
b1 +
0(
0'
b0 %
b0 &
1(
1'
b11010000100000000000000000000 %
b110110 &
#250000
0#
#255000
1#
0(
0'
b0 %
b0 &
1(
1)
1'
b11010000100000000000000000000 %
b110110 &
#260000
0#
#265000
1#
0(
0)
0'
b0 %
b0 &
0*
b0 +
#270000
0#
#275000
1#
1(
1'
b11010000100000000000000000100 %
1*
b110110 +
0(
0'
b0 %
1(
1'
b11010000100000000000000000100 %
b0 +
#280000
0#
#285000
1#
0(
0'
b0 %
1(
1)
1'
b11010000100000000000000000100 %
#290000
0#
#295000
1#
0(
0)
0'
b0 %
0*
#300000
0#
#305000
1#
1(
1'
b11010000100000000000000001100 %
b11 &
1*
b110110 +
0(
0'
b0 %
b0 &
1(
1'
b11010000100000000000000001100 %
b11 &
b10000011 +
#310000
0#
#315000
1#
0(
0'
b0 %
b0 &
1(
1)
1'
b11010000100000000000000001100 %
b11 &
#320000
0#
#325000
1#
0(
0)
0'
b0 %
b0 &
0*
b0 +
#330000
0#
#335000
1#
1(
1'
b11010000100000000000000001000 %
b111 &
1*
0(
0'
b0 %
b0 &
1(
1'
b11010000100000000000000001000 %
b111 &
b1 +
#340000
0#
#345000
1#
0(
0'
b0 %
b0 &
1(
1)
1'
b11010000100000000000000001000 %
b111 &
#350000
0#
#355000
1#
0(
0)
0'
b0 %
b0 &
0*
b0 +
